Chapter 5 Multiple regression | Demystifying Structural Equation Modeling
…
music <- read_csv("https://raw.githubusercontent.com/VectorPosse/sem_book/main/data/music.csv")

## Rows: 10000 Columns: 35
## ── Column specification ────────────────────────────────────────────────────────
## Delimiter: ","
## chr  (4): artist.id, artist.name, artist.terms, song.id
## dbl (31): artist.familiarity, artist.hotttnesss, artist.latitude, artist.loc...
## 
## ℹ Use `spec()` to retrieve the full column specification for this data.
## ℹ Specify the column types or set `show_col_types = FALSE` to quiet this message.

music

## # A tibble: 10,000 × 35
##    artist.familiarity artist.hotttnes… artist.id artist.latitude artist.location
##                 <dbl>            <dbl> <chr>               <dbl>           <dbl>
##  1              0.582            0.402 ARD7TVE1…             0                 0
##  2              0.631            0.417 ARMJAGH1…            35.1               0
##  3              0.487            0.343 ARKRRTF1…             0                 0
##  4              0.630            0.454 AR7G5I41…             0                 0
##  5              0.651            0.402 ARXR32B1…             0                 0
##  6              0.535            0.385 ARKFYS91…             0                 0
##  7              0.556            0.262 ARD0S291…             0                 0
##  8              0.801            0.606 AR10USD1…             0                 0
##  9              0.427            0.332 AR8ZCNI1…             0                 0
## 10              0.551            0.423 ARNTLGG1…             0                 0
## # … with 9,990 more rows, and 30 more variables: artist.longitude <dbl>,
## #   artist.name <chr>, artist.similar <dbl>, artist.terms <chr>,
## #   artist.terms_freq <dbl>, release.id <dbl>, release.name <dbl>,
## #   song.artist_mbtags <dbl>, song.artist_mbtags_count <dbl>,
## #   song.bars_confidence <dbl>, song.bars_start <dbl>,
## #   song.beats_confidence <dbl>, song.beats_start <dbl>, song.duration <dbl>,
## #   song.end_of_fade_in <dbl>, song.hotttnesss <dbl>, song.id <chr>, …
…
Is it possible for a song tempo to be 0 BPM?

To make it a little cleaner, the following code will select only the variables in which we’re interested. Then it will filter out the values we want to keep (discarding the ones that represent missing/invalid data). We’ll put this into a new tibble called music_clean.

music_clean <- music %>%
    select(song.hotttnesss, artist.hotttnesss,
           song.loudness, song.tempo) %>%
    filter(song.hotttnesss > 0,
           artist.hotttnesss > 0,
           song.tempo > 0)
music_clean

## # A tibble: 4,157 × 4
##    song.hotttnesss artist.hotttnesss song.loudness song.tempo
##              <dbl>             <dbl>         <dbl>      <dbl>
##  1           0.602             0.402        -11.2        92.2
##  2           0.605             0.402         -4.50      130. 
##  3           0.266             0.332        -13.5        86.6
##  4           0.266             0.352         -7.54      118. 
##  5           0.405             0.448         -8.58      120. 
##  6           0.335             0.331        -16.1       128. 
##  7           0.684             0.513         -5.27      150. 
##  8           0.314             0.378         -8.05      112. 
##  9           0.667             0.542         -4.26      167. 
## 10           0.495             0.306        -12.3       138. 
## # … with 4,147 more rows
…
Song popularity is predicted to increase 0.04 points for every increase of 10 dB of loudness.

\(b_{3}\):

Song popularity is predicted to increase 0.0002 points for every increase of 1 BPM in the tempo.

Restate the interpretation of \(b_{3}\) on a scale that makes sense. If you’re not familiar with BPM, Google it to get a sense of what a reasonable jump in tempo might be.

Now that we have the model fit, we can use broom to capture the residuals.

SONG_aug <- augment(SONG_lm)
SONG_aug

## # A tibble: 4,157 × 10
##    song.hotttnesss artist.hotttnesss song.loudness song.tempo .fitted  .resid
##              <dbl>             <dbl>         <dbl>      <dbl>   <dbl>   <dbl>
##  1           0.602             0.402        -11.2        92.2   0.423  0.179 
##  2           0.605             0.402         -4.50      130.    0.455  0.149 
##  3           0.266             0.332        -13.5        86.6   0.364 -0.0984
##  4           0.266             0.352         -7.54      118.    0.406 -0.140 
##  5           0.405             0.448         -8.58      120.    0.470 -0.0652
##  6           0.335             0.331        -16.1       128.    0.362 -0.0273
##  7           0.684             0.513         -5.27      150.    0.535  0.150 
##  8           0.314             0.378         -8.05      112.    0.422 -0.108 
##  9           0.667             0.542         -4.26      167.    0.562  0.105 
## 10           0.495             0.306        -12.3       138.    0.361  0.134 
## # … with 4,147 more rows, and 4 more variables: .hat <dbl>, .sigma <dbl>,
## #   .cooksd <dbl>, .std.resid <dbl>
…
