Chapter 4 Simple regression | Demystifying Structural Equation Modeling
…
The letter \(v\) requires no further explanation. This is the variance of the variable \(X\), so we already know about it.

The parameter \(b\) is supposed to measure something about the predictive relationship between \(X\) and \(Y\). It is attached to an arrow that is drawn a little thicker than the other arrows in the diagram. More to say about that in a moment.

The really weird, new part is the circle on the right. This will be the “error” term.

What is “error” and why is it here? To illustrate, let’s plot wind speed against temperature. Before plotting and analyzing these variables, we are going to mean-center them and put them in a tibble.

X <- airquality$Wind - mean(airquality$Wind)
Y <- airquality$Temp - mean(airquality$Temp)
airquality_mc <- tibble(X, Y)
airquality_mc

## # A tibble: 153 × 2
##        X      Y
##    <dbl>  <dbl>
##  1 -2.56 -10.9 
##  2 -1.96  -5.88
##  3  2.64  -3.88
##  4  1.54 -15.9 
##  5  4.34 -21.9 
##  6  4.94 -11.9 
##  7 -1.36 -12.9 
##  8  3.84 -18.9 
##  9 10.1  -16.9 
## 10 -1.36  -8.88
## # … with 143 more rows
…
\[
e = 1 - r_{YX}^{2}
\]

When the variables are standardized, the slope of the regression is just the correlation! And the error variance is just a proportion between 0 and 1 which is complementary to \(r_{YX}^{2}\) (aka, \(R^{2}\), or the variance explained by the model). Those two variances, \(e\) and \(R^{2}\) now add up to 1.

We’ll use the scale command to create standardized variables for temperature and wind speed and put them in a new tibble.

X_std <- scale(airquality$Wind)
Y_std <- scale(airquality$Temp)
airquality_std <- tibble(X_std, Y_std)
airquality_std

## # A tibble: 153 × 2
##    X_std[,1] Y_std[,1]
##        <dbl>     <dbl>
##  1    -0.726    -1.15 
##  2    -0.556    -0.621
##  3     0.750    -0.410
##  4     0.438    -1.68 
##  5     1.23     -2.31 
##  6     1.40     -1.26 
##  7    -0.385    -1.36 
##  8     1.09     -1.99 
##  9     2.88     -1.78 
## 10    -0.385    -0.938
## # … with 143 more rows
…
Which of the two numbers above is the slope \(b\)?

We haven’t talked about the intercept yet, but according to this output, what is it? (Hint: it’s not literally \(1.117 \times 10^{-14}\). What does that number really mean?)

Run the lm command, but this time using the standardized variables from the airquality_std tibble. The value of the slope should not surprise you. Explain why it is what it is.

Don’t forget: these parameters make no sense to interpret unless the regression assumptions are met. We looked at a scatterplot already and determined that is was approximately linear. But we haven’t checked the residuals.

The residuals can be obtained most easily from the model by using the augment command from the broom package in the following way:

YX_aug <- augment(YX_lm)
YX_aug

## # A tibble: 153 × 8
##         Y     X .fitted  .resid    .hat .sigma   .cooksd .std.resid
##     <dbl> <dbl>   <dbl>   <dbl>   <dbl>  <dbl>     <dbl>      <dbl>
##  1 -10.9  -2.56    3.15 -14.0   0.0100    8.39 0.0141       -1.67  
##  2  -5.88 -1.96    2.41  -8.29  0.00857   8.44 0.00420      -0.986 
##  3  -3.88  2.64   -3.25  -0.631 0.0102    8.47 0.0000292    -0.0751
##  4 -15.9   1.54   -1.90 -14.0   0.00780   8.39 0.0109       -1.66  
##  5 -21.9   4.34   -5.34 -16.5   0.0165    8.36 0.0328       -1.98  
##  6 -11.9   4.94   -6.08  -5.80  0.0195    8.46 0.00478      -0.694 
##  7 -12.9  -1.36    1.67 -14.6   0.00751   8.39 0.0113       -1.73  
##  8 -18.9   3.84   -4.73 -14.2   0.0144    8.39 0.0208       -1.69  
##  9 -16.9  10.1   -12.5   -4.40  0.0611    8.46 0.00942      -0.538 
## 10  -8.88 -1.36    1.67 -10.6   0.00751   8.43 0.00596      -1.25  
## # … with 143 more rows
…
